Visual Detective: Insights on Cards Transactions
…
Plot_top5cc_loc<-ggplot(top5cc_loc,aes(x= reorder(location,Transactions),y=Transactions,fill=location))+geom_col()+xlab("Locations") +coord_flip()+ggtitle("Top 5 locations based on transactions (from credit card data)") + theme_update(text = element_text(family = "serif", size = 12),rect = element_blank(),panel.grid = element_blank(), title = element_text(color = "#8b0000"),axis.line = element_line(color = "black"))+ theme(legend.position="none")

List locations popularity based on total transactions (loyalty card data)

  loyalty_data %>%
  group_by(location)%>%
  summarise(Transactions = n())%>%
  arrange(desc(Transactions))

# A tibble: 33 x 2
   location             Transactions
   <chr>                       <int>
 1 Katerinas Caf               195
 2 Hippokampos                   155
 3 Guy's Gyros                   146
 4 Brew've Been Served           140
 5 Ouzeri Elian                   84
 6 Hallowed Grounds               80
 7 Abila Zacharo                  71
 8 Kalami Kafenion                66
 9 Gelatogalore                   60
10 Bean There Done That           45
# ... with 23 more rows
…
  subplot(Plot4,Plot5,Plot6,nrows = 3,shareY = TRUE,shareX = TRUE)

Key findings on the shortlisted popular locations based on the day and time of transactions. 1. Card L4149 spending pattern is irregular. L4149 have low average spent but have one high spending transaction.

1b When are these locations popular?

List the day of the week which the locations are popular (on credit card data)

popday_cc<-cc_data %>%
  filter(location %in% c("Brew've Been Served","Katerinas Caf","Hippokampos","Guy's Gyros","Hallowed Grounds")) %>%
  count(location,Weekday)%>%
  arrange(desc(n))
popday_cc

# A tibble: 31 x 3
   location            Weekday     n
   <chr>               <ord>   <int>
 1 Katerinas Caf     Sat        38
 2 Brew've Been Served Wed        34
 3 Katerinas Caf     Mon        34
 4 Katerinas Caf     Tue        34
 5 Katerinas Caf     Thu        32
 6 Brew've Been Served Mon        31
 7 Brew've Been Served Tue        31
 8 Brew've Been Served Fri        31
 9 Hippokampos         Thu        31
10 Katerinas Caf     Wed        30
# ... with 21 more rows
…
List the hour of the day which the locations are popular (on credit card data)

pophour_cc<-cc_data %>%
  filter(location %in% c("Brew've Been Served","Katerinas Caf","Hippokampos","Guy's Gyros","Hallowed Grounds")) %>%
  group_by(location,Hour)%>%
  summarise(Hourcount = n())%>%
  arrange(desc(Hourcount))
pophour_cc

# A tibble: 23 x 3
# Groups:   location [5]
   location             Hour Hourcount
   <chr>               <int>     <int>
 1 Brew've Been Served     7        93
 2 Katerinas Caf        20        84
 3 Hallowed Grounds        7        72
 4 Hippokampos            13        66
 5 Brew've Been Served     8        63
 6 Katerinas Caf        13        61
 7 Guy's Gyros            20        59
 8 Guy's Gyros            13        50
 9 Hippokampos            20        43
10 Katerinas Caf        19        36
# ... with 13 more rows
…
List the day of the week which the locations are popular (on loyalty card data)

popday_loyal<-loyalty_data %>%
  filter(location %in% c("Brew've Been Served","Katerinas Caf","Hippokampos","Guy's Gyros","Ouzeri Elian")) %>%
  count(location,Weekday)%>%
  arrange(desc(n))
popday_loyal

# A tibble: 33 x 3
   location            Weekday     n
   <chr>               <ord>   <int>
 1 Katerinas Caf     Sat        34
 2 Katerinas Caf     Tue        33
 3 Brew've Been Served Wed        32
 4 Katerinas Caf     Thu        32
 5 Brew've Been Served Mon        30
 6 Brew've Been Served Tue        28
 7 Brew've Been Served Fri        28
 8 Katerinas Caf     Mon        28
 9 Katerinas Caf     Wed        27
10 Guy's Gyros         Mon        26
# ... with 23 more rows
…
